{
  "type": "object",
  "properties": {
    "id": { "type": "integer" },
    "name": { "type": "string" },
    "approvals_required": { "type": "integer" },
    "approvers": {
      "type": "array",
      "items": {
        "type": "object",
        "properties": {}
      }
    },
    "groups": {
      "type": "array",
      "items": {
        "type": "object",
        "properties": {}
      }
    },
    "users": {
      "type": "array",
      "items": {
        "type": "object",
        "properties": {}
      }
    }
  },
  "additionalProperties": false
}
